FPGA-Game-D1-master/HW/RTL/09J1EJEMPLO/hdl/divider/simulation/peripheral_div_TB.vcd
$date
	Mon Nov 10 01:23:56 2014
$end
$version
	Icarus Verilog
$end
$timescale
	1ps
$end
$scope module peripheral_div_TB $end
$scope module uut $end
$var wire 16 ! C [15:0] $end
$var wire 4 " addr [3:0] $end
$var wire 1 # clk $end
$var wire 1 $ cs $end
$var wire 16 % d_in [15:0] $end
$var wire 1 & done $end
$var wire 1 ' rd $end
$var wire 1 ( rst $end
$var wire 1 ) wr $end
$var reg 16 * A [15:0] $end
$var reg 16 + B [15:0] $end
$var reg 16 , d_out [15:0] $end
$var reg 1 - init $end
$var reg 6 . s [5:0] $end
$scope module d_16 $end
$var wire 16 / A [15:0] $end
$var wire 16 0 B [15:0] $end
$var wire 1 1 DEC $end
$var wire 1 2 DV0 $end
$var wire 1 3 INIT $end
$var wire 1 4 LDA $end
$var wire 1 5 MSB $end
$var wire 16 6 Reg_A [15:0] $end
$var wire 16 7 Result [15:0] $end
$var wire 16 8 Result_Sub [15:0] $end
$var wire 1 9 SH $end
$var wire 1 # clk $end
$var wire 1 & done $end
$var wire 1 : init_in $end
$var wire 1 ( rst $end
$var wire 1 ; z $end
$scope module lsr_d $end
$var wire 16 < DV_in [15:0] $end
$var wire 1 3 INIT $end
$var wire 1 4 LDA $end
$var wire 16 = Result [15:0] $end
$var wire 1 9 SH $end
$var wire 1 # clk $end
$var wire 1 > rst $end
$var reg 16 ? A [15:0] $end
$var reg 16 @ DV [15:0] $end
$upscope $end
$scope module sb $end
$var wire 1 2 DV0 $end
$var wire 1 # clk $end
$var wire 16 A in_A [15:0] $end
$var wire 16 B in_B [15:0] $end
$var wire 1 ( rst $end
$var reg 1 C MSB $end
$var reg 16 D Result [15:0] $end
$upscope $end
$scope module ctr_dv $end
$var wire 1 1 DEC $end
$var wire 1 # clk $end
$var wire 1 3 rst $end
$var reg 5 E cont [4:0] $end
$var reg 1 F z $end
$upscope $end
$scope module ctl_dv $end
$var wire 1 5 MSB $end
$var wire 1 # clk $end
$var wire 1 ( rst $end
$var wire 1 : start $end
$var wire 1 ; z $end
$var reg 1 G DEC $end
$var reg 1 H DONE $end
$var reg 1 I DV0 $end
$var reg 1 J INIT $end
$var reg 1 K LDA $end
$var reg 1 L SH $end
$var reg 4 M count [3:0] $end
$var reg 3 N state [2:0] $end
$upscope $end
$scope module fr $end
$var wire 1 1 DEC $end
$var wire 1 5 MSB $end
$var wire 1 # clk $end
$var wire 1 3 rst $end
$var reg 16 O Result [15:0] $end
$upscope $end
$upscope $end
$upscope $end
$upscope $end
$enddefinitions $end
#0
$dumpvars
bx O
bx N
bx M
0L
0K
1J
0I
0H
0G
0F
b10000 E
b0 D
0C
b0x000xx B
b0 A
b0x000xx @
b0 ?
0>
b0 =
b0x000xx <
0;
x:
09
b0 8
bx 7
b0 6
05
04
13
02
01
b0x000xx 0
b0x000xx /
b1 .
x-
b0 ,
b0x000xx +
b0x000xx *
1)
x(
0'
0&
b100011 %
1$
0#
b0 "
bx !
$end
#10000
b0 N
b0 O
b0 !
b0 7
1#
#20000
0-
0:
b100011 *
b100011 /
b100011 <
0#
#30000
b0 M
1#
#40000
b100011 @
0#
#50000
1#
#60000
0#
#70000
1#
#80000
0#
#90000
1#
#100000
0#
#110000
1#
#120000
0#
#130000
1#
#140000
0#
#150000
1#
#160000
0#
#170000
b1010 %
1#
#180000
b1010 *
b1010 /
b1010 <
0#
#190000
1#
#200000
b1010 @
0#
#210000
1#
#220000
0#
#230000
1#
#240000
0#
#250000
b10 .
b10 "
b100 %
1#
#260000
1C
15
b100 +
b100 0
b100 B
0#
#270000
1#
#280000
0#
#290000
1#
#300000
0#
#310000
1#
#320000
0#
#330000
b100 .
b100 "
b1 %
1#
#340000
1-
1:
0#
#350000
1G
11
1L
19
0J
03
b1 N
1#
#360000
b10100 @
b1111 E
0#
#370000
0G
01
0L
09
b10 N
1#
#380000
0#
#390000
1G
11
1L
19
b1 N
1#
#400000
b101000 @
b1110 E
0#
#410000
0G
01
0L
09
b1000 .
b10 N
0)
1'
b110 "
b0 %
1#
#420000
b0 ,
0-
0:
0#
#430000
1G
11
1L
19
b1 N
1#
#440000
b1010000 @
b1101 E
b0 ,
0#
#450000
0G
01
0L
09
b10 N
1#
#460000
b0 ,
0#
#470000
1G
11
1L
19
b1 N
1#
#480000
b10100000 @
b1100 E
b0 ,
0#
#490000
0G
01
0L
09
b10 N
1#
#500000
b0 ,
0#
#510000
1G
11
1L
19
b1 N
1#
#520000
b101000000 @
b1011 E
b0 ,
0#
#530000
0G
01
0L
09
b10 N
1#
#540000
b0 ,
0#
#550000
1G
11
1L
19
b1 N
1#
#560000
b1010000000 @
b1010 E
b0 ,
0#
#570000
0G
01
0L
09
b10 N
1#
#580000
b0 ,
0#
#590000
1G
11
1L
19
b1 N
1#
#600000
b10100000000 @
b1001 E
b0 ,
0#
#610000
0G
01
0L
09
b10 N
1#
#620000
b0 ,
0#
#630000
1G
11
1L
19
b1 N
1#
#640000
b101000000000 @
b1000 E
b0 ,
0#
#650000
0G
01
0L
09
b10 N
1#
#660000
b0 ,
0#
#670000
1G
11
1L
19
b1 N
1#
#680000
b1010000000000 @
b111 E
b0 ,
0#
#690000
0G
01
0L
09
b10 N
1#
#700000
b0 ,
0#
#710000
1G
11
1L
19
b1 N
1#
#720000
b10100000000000 @
b110 E
b0 ,
0#
#730000
0G
01
0L
09
b10 N
1#
#740000
b0 ,
0#
#750000
1G
11
1L
19
b1 N
1#
#760000
b101000000000000 @
b101 E
b0 ,
0#
#770000
0G
01
0L
09
b10 N
1#
#780000
b0 ,
0#
#790000
1G
11
1L
19
b1 N
1#
#800000
b1010000000000000 @
b100 E
b0 ,
0#
#810000
0G
01
0L
09
b10 N
1#
#820000
b0 ,
0#
#830000
1G
11
1L
19
b1 N
1#
#840000
b1 ?
b1 6
b1 A
b100000000000000 @
b11 E
b0 ,
0#
#850000
0G
01
0L
09
b10 N
1#
#860000
b0 ,
0#
#870000
1G
11
1L
19
b1 N
1#
#880000
b10 ?
b10 6
b10 A
b1000000000000000 @
b10 E
b0 ,
0#
#890000
0G
01
0L
09
b10 N
1#
#900000
b0 ,
0#
#910000
1G
11
1L
19
b1 N
1#
#920000
0C
05
b101 ?
b101 6
b101 A
b0 @
b1 E
b0 ,
0#
#930000
0G
01
0L
09
b10 N
b1 O
b1 !
b1 7
1#
#940000
b0 ,
0#
#950000
1I
12
b11 N
1#
#960000
b1 D
b1 8
b1 =
b0 ,
0#
#970000
1K
14
0I
02
b101 N
1#
#980000
1C
15
b0 ,
b1 ?
b1 6
b1 A
0#
#990000
0K
04
1G
11
1L
19
b1 N
1#
#1000000
b10 ?
b10 6
b10 A
1F
1;
b0 E
b0 ,
0#
#1010000
0G
01
0L
09
b10 N
b10 O
b10 !
b10 7
1#
#1020000
b0 ,
0#
#1030000
1H
1&
b100 N
1#
#1040000
b1 ,
0#
#1050000
b1 M
1#
#1060000
b1 ,
0#
#1070000
b10 M
1#
#1080000
b1 ,
0#
#1090000
b11 M
1#
#1100000
b1 ,
0#
#1110000
b100 M
1#
#1120000
b1 ,
0#
#1130000
b101 M
1#
#1140000
b1 ,
0#
#1150000
b110 M
1#
#1160000
b1 ,
0#
#1170000
b111 M
1#
#1180000
b1 ,
0#
#1190000
b1000 M
1#
#1200000
b1 ,
0#
#1210000
b1001 M
1#
#1220000
b1 ,
0#
#1230000
0H
0&
1J
13
b0 N
b1010 M
1#
#1240000
b1010 @
b0 ?
b0 6
b0 A
0F
0;
b10000 E
b0 ,
0#
#1250000
b0 M
b0 O
b0 !
b0 7
1#
#1260000
b0 ,
0#
#1270000
1#
#1280000
b0 ,
0#
#1290000
1#
#1300000
b0 ,
0#
#1310000
1#
#1320000
b0 ,
0#
#1330000
1#
#1340000
b0 ,
0#
#1350000
1#
#1360000
b0 ,
0#
#1370000
1#
#1380000
b0 ,
0#
#1390000
1#
#1400000
b0 ,
0#
#1410000
1#
#1420000
b0 ,
0#
#1430000
1#
#1440000
b0 ,
0#
#1450000
1#
#1460000
b0 ,
0#
#1470000
1#
#1480000
b0 ,
0#
#1490000
1#
#1500000
b0 ,
0#
#1510000
1#
#1520000
b0 ,
0#
#1530000
1#
#1540000
b0 ,
0#
#1550000
1#
#1560000
b0 ,
0#
#1570000
1#
#1580000
b0 ,
0#
#1590000
1#
#1600000
b0 ,
0#
#1610000
1#
#1620000
b0 ,
0#
#1630000
1#
#1640000
b0 ,
0#
#1650000
1#
#1660000
b0 ,
0#
#1670000
1#
#1680000
b0 ,
0#
#1690000
1#
#1700000
b0 ,
0#
#1710000
1#
#1720000
b0 ,
0#
#1730000
1#
#1740000
b0 ,
0#
#1750000
1#
#1760000
b0 ,
0#
#1770000
1#
#1780000
b0 ,
0#
#1790000
1#
#1800000
b0 ,
0#
#1810000
1#
#1820000
b0 ,
0#
#1830000
1#
#1840000
b0 ,
0#
#1850000
1#
#1860000
b0 ,
0#
#1870000
1#
#1880000
b0 ,
0#
#1890000
1#
#1900000
b0 ,
0#
#1910000
1#
#1920000
b0 ,
0#
#1930000
1#
#1940000
b0 ,
0#
#1950000
1#
#1960000
b0 ,
0#
#1970000
1#
#1980000
b0 ,
0#
#1990000
1#
#2000000
b0 ,
0#
