FPGA-Game-D1-master/HW/RTL/08ULTRASONIDO/Version_01/02 verilog/ultrasonido_modulo_1/ultrasonido_TB.vcd
$date
	Wed Oct 11 04:24:26 2017
$end
$version
	Icarus Verilog
$end
$timescale
	1s
$end
$scope module utrasonido_TB $end
$scope module uut $end
$var wire 1 ! clk $end
$var wire 1 " echo $end
$var wire 1 # reset $end
$var reg 32 $ distance [31:0] $end
$var reg 1 % done $end
$var reg 1 & trigger $end
$var integer 32 ' countF [31:0] $end
$var integer 32 ( countecho [31:0] $end
$upscope $end
$upscope $end
$enddefinitions $end
#0
$dumpvars
bx (
b0 '
x&
x%
bx $
z#
z"
1!
$end
#2
0!
#4
1&
b1 '
1!
#6
0!
#8
b10 '
1!
#10
0!
#12
b11 '
1!
#14
0!
#16
b100 '
1!
#18
0!
#20
b101 '
1!
#22
0!
#24
b110 '
1!
#26
0!
#28
b111 '
1!
#30
0!
#32
b1000 '
1!
#34
0!
#36
b1001 '
1!
#38
0!
#40
b1010 '
1!
#42
0!
#44
0&
b1011 '
1!
#46
0!
#48
b1100 '
1!
#50
0!
#52
b1101 '
1!
#54
0!
#56
b1110 '
1!
#58
0!
#60
b1111 '
1!
#62
0!
#64
b10000 '
1!
#66
0!
#68
b10001 '
1!
#70
0!
#72
b10010 '
1!
#74
0!
#76
b10011 '
1!
#78
0!
#80
b10100 '
1!
#82
0!
#84
b10101 '
1!
#86
0!
#88
b10110 '
1!
#90
0!
#92
b10111 '
1!
#94
0!
#96
b11000 '
1!
#98
0!
#100
b11001 '
1!
#102
0!
#104
b11010 '
1!
#106
0!
#108
b11011 '
1!
#110
0!
#112
b11100 '
1!
#114
0!
#116
b11101 '
1!
#118
0!
#120
b11110 '
1!
#122
0!
#124
b11111 '
1!
#126
0!
#128
b100000 '
1!
#130
0!
#132
b100001 '
1!
#134
0!
#136
b100010 '
1!
#138
0!
#140
b100011 '
1!
#142
0!
#144
b100100 '
1!
#146
0!
#148
b100101 '
1!
#150
0!
#152
b100110 '
1!
#154
0!
#156
b100111 '
1!
#158
0!
#160
b101000 '
1!
#162
0!
#164
b0 '
1!
#166
0!
#168
1&
b1 '
1!
#170
0!
#172
b10 '
1!
#174
0!
#176
b11 '
1!
#178
0!
#180
b100 '
1!
#182
0!
#184
b101 '
1!
#186
0!
#188
b110 '
1!
#190
0!
#192
b111 '
1!
#194
0!
#196
b1000 '
1!
#198
0!
#200
b1001 '
1!
#202
0!
#204
b1010 '
1!
#206
0!
#208
0&
b1011 '
1!
#210
0!
#212
b1100 '
1!
#214
0!
#216
b1101 '
1!
#218
0!
#220
b1110 '
1!
#222
0!
#224
b1111 '
1!
#226
0!
#228
b10000 '
1!
#230
0!
#232
b10001 '
1!
#234
0!
#236
b10010 '
1!
#238
0!
#240
b10011 '
1!
#242
0!
#244
b10100 '
1!
#246
0!
#248
b10101 '
1!
#250
0!
#252
b10110 '
1!
#254
0!
#256
b10111 '
1!
#258
0!
#260
b11000 '
1!
#262
0!
#264
b11001 '
1!
#266
0!
#268
b11010 '
1!
#270
0!
#272
b11011 '
1!
#274
0!
#276
b11100 '
1!
#278
0!
#280
b11101 '
1!
#282
0!
#284
b11110 '
1!
#286
0!
#288
b11111 '
1!
#290
0!
#292
b100000 '
1!
#294
0!
#296
b100001 '
1!
#298
0!
#300
b100010 '
1!
#302
0!
#304
b100011 '
1!
#306
0!
#308
b100100 '
1!
#310
0!
#312
b100101 '
1!
#314
0!
#316
b100110 '
1!
#318
0!
#320
b100111 '
1!
#322
0!
#324
b101000 '
1!
#326
0!
#328
b0 '
1!
#330
0!
#332
1&
b1 '
1!
#334
0!
#336
b10 '
1!
#338
0!
#340
b11 '
1!
#342
0!
#344
b100 '
1!
#346
0!
#348
b101 '
1!
#350
0!
#352
b110 '
1!
#354
0!
#356
b111 '
1!
#358
0!
#360
b1000 '
1!
#362
0!
#364
b1001 '
1!
#366
0!
#368
b1010 '
1!
#370
0!
#372
0&
b1011 '
1!
#374
0!
#376
b1100 '
1!
#378
0!
#380
b1101 '
1!
#382
0!
#384
b1110 '
1!
#386
0!
#388
b1111 '
1!
#390
0!
#392
b10000 '
1!
#394
0!
#396
b10001 '
1!
#398
0!
#400
b10010 '
1!
#402
0!
#404
b10011 '
1!
#406
0!
#408
b10100 '
1!
#410
0!
#412
b10101 '
1!
#414
0!
#416
b10110 '
1!
#418
0!
#420
b10111 '
1!
#422
0!
#424
b11000 '
1!
#426
0!
#428
b11001 '
1!
#430
0!
#432
b11010 '
1!
#434
0!
#436
b11011 '
1!
#438
0!
#440
b11100 '
1!
#442
0!
#444
b11101 '
1!
#446
0!
#448
b11110 '
1!
#450
0!
#452
b11111 '
1!
#454
0!
#456
b100000 '
1!
#458
0!
#460
b100001 '
1!
#462
0!
#464
b100010 '
1!
#466
0!
#468
b100011 '
1!
#470
0!
#472
b100100 '
1!
#474
0!
#476
b100101 '
1!
#478
0!
#480
b100110 '
1!
#482
0!
#484
b100111 '
1!
#486
0!
#488
b101000 '
1!
#490
0!
#492
b0 '
1!
#494
0!
#496
1&
b1 '
1!
#498
0!
#500
b10 '
1!
