FPGA-Game-D1-master/HW/RTL/06PCM-AUDIO-MICROFONO/Version_01/02 verilog/Otros/Guia/simulation/microfono_TB.vcd
$date
	Fri Nov 10 04:34:44 2017
$end
$version
	Icarus Verilog
$end
$timescale
	1s
$end
$scope module microfono_TB $end
$scope module uut $end
$var wire 1 ! clk $end
$var wire 1 " ledres $end
$var wire 1 # mclk $end
$var wire 1 $ mclk1 $end
$var wire 1 % mclk2 $end
$var wire 1 & micData $end
$var wire 1 ' reset $end
$var reg 1 ( ampPWM $end
$var reg 1 ) ampSD $end
$var reg 32 * count [31:0] $end
$var reg 1 + micLRSel $end
$var reg 16 , sregt [15:0] $end
$scope module df $end
$var wire 1 ! clk $end
$var wire 1 ' reset $end
$var reg 1 - clkout $end
$var reg 32 . count [31:0] $end
$var reg 1 / led $end
$upscope $end
$upscope $end
$upscope $end
$scope module microfono_TB $end
$scope module uttf $end
$var wire 1 ! clk $end
$var wire 16 0 data_in [15:0] $end
$var wire 16 1 data_out [15:0] $end
$var wire 1 2 empty $end
$var wire 1 3 full $end
$var wire 1 4 mclk $end
$var wire 1 & micData $end
$var wire 1 5 rd $end
$var wire 1 ' reset $end
$var wire 1 6 rw $end
$var wire 1 7 wr $end
$var wire 1 8 wr_en $end
$var reg 1 9 empty_next $end
$var reg 1 : empty_reg $end
$var reg 1 ; full_next $end
$var reg 1 < full_reg $end
$var reg 12 = r_ptr_next [11:0] $end
$var reg 12 > r_ptr_reg [11:0] $end
$var reg 12 ? w_ptr_next [11:0] $end
$var reg 12 @ w_ptr_reg [11:0] $end
$scope module mic $end
$var wire 1 ! clk $end
$var wire 1 A ledres $end
$var wire 1 4 mclk $end
$var wire 1 B mclk1 $end
$var wire 1 C mclk2 $end
$var wire 1 & micData $end
$var wire 1 ' reset $end
$var reg 1 D ampPWM $end
$var reg 1 E ampSD $end
$var reg 32 F count [31:0] $end
$var reg 1 G micLRSel $end
$var reg 16 H sregt [15:0] $end
$scope module df $end
$var wire 1 ! clk $end
$var wire 1 ' reset $end
$var reg 1 I clkout $end
$var reg 32 J count [31:0] $end
$var reg 1 K led $end
$upscope $end
$upscope $end
$upscope $end
$upscope $end
$enddefinitions $end
#0
$dumpvars
0K
b10000 J
0I
bx H
0G
b0 F
1E
xD
0C
0B
0A
bx @
bx ?
bx >
bx =
x<
x;
x:
x9
x8
17
16
05
04
x3
x2
bx 1
bx 0
0/
b10000 .
0-
bx ,
0+
b0 *
1)
x(
0'
x&
0%
0$
0#
0"
1!
$end
#2
0!
#4
1!
#6
0!
#8
1!
#10
0!
1'
#12
b1111 J
b1111 .
1K
1A
1/
1"
1!
#14
0!
#16
b1110 .
b1110 J
1!
#18
0!
#20
b1101 J
b1101 .
1!
#22
0!
#24
b1100 .
b1100 J
1!
#26
0!
#28
b1011 J
b1011 .
1!
#30
0!
#32
b1010 .
b1010 J
1!
#34
0!
#36
b1001 J
b1001 .
1!
#38
0!
#40
b1000 .
b1000 J
1!
#42
0!
#44
b111 J
b111 .
1!
#46
0!
#48
b110 .
b110 J
1!
#50
0!
#52
b101 J
b101 .
1!
#54
0!
#56
b100 .
b100 J
1!
#58
0!
#60
b11 J
b11 .
1!
#62
0!
#64
b10 .
b10 J
1!
#66
0!
#68
b1 J
b1 .
1!
#70
0!
#72
b0 .
b0 J
1!
#74
0!
#76
18
1:
12
0<
03
b0 >
b0 @
b10000 J
1I
1B
14
1C
b10000 .
1-
1$
1#
1%
1!
#78
0!
#80
b1111 .
b1111 J
1!
#82
0!
#84
b1110 J
b1110 .
1!
#86
0!
#88
b1101 .
b1101 J
1!
#90
0!
#92
b1100 J
b1100 .
1!
#94
0!
#96
b1011 .
b1011 J
1!
#98
0!
#100
b1010 J
b1010 .
1!
1&
#102
0!
#104
b1001 .
b1001 J
1!
#106
0!
#108
b1000 J
b1000 .
1!
#110
0!
#112
b111 .
b111 J
1!
#114
0!
#116
b110 J
b110 .
1!
#118
0!
#120
b101 .
b101 J
1!
#122
0!
#124
b100 J
b100 .
1!
#126
0!
#128
b11 .
b11 J
1!
#130
0!
#132
b10 J
b10 .
1!
#134
0!
#136
b1 .
b1 J
1!
#138
0!
#140
b0 J
b0 .
1!
#142
0!
#144
b10000 .
0-
0$
0#
0%
b10000 J
0I
0B
04
0C
1!
#146
0!
#148
b1111 J
b1111 .
1!
#150
0!
#152
b1110 .
b1110 J
1!
#154
0!
#156
b1101 J
b1101 .
1!
#158
0!
#160
b1100 .
b1100 J
1!
#162
0!
#164
b1011 J
b1011 .
1!
#166
0!
#168
b1010 .
b1010 J
1!
#170
0!
#172
b1001 J
b1001 .
1!
#174
0!
#176
b1000 .
b1000 J
1!
#178
0!
#180
b111 J
b111 .
1!
#182
0!
#184
b110 .
b110 J
1!
#186
0!
#188
b101 J
b101 .
1!
#190
0!
#192
b100 .
b100 J
1!
#194
0!
#196
b11 J
b11 .
1!
#198
0!
#200
b10 .
b10 J
1!
#202
0!
#204
b1 J
b1 .
1!
#206
0!
#208
b0 .
b0 J
1!
#210
0!
#212
bx1 H
1D
bx1 ,
1(
b10000 J
1I
1B
14
1C
b10000 .
1-
1$
1#
1%
1!
#214
0!
#216
b1111 .
b1111 J
1!
#218
0!
#220
b1110 J
b1110 .
1!
#222
0!
#224
b1101 .
b1101 J
1!
#226
0!
#228
b1100 J
b1100 .
1!
#230
0!
#232
b1011 .
b1011 J
1!
#234
0!
#236
b1010 J
b1010 .
1!
#238
0!
#240
b1001 .
b1001 J
1!
#242
0!
#244
b1000 J
b1000 .
1!
#246
0!
#248
b111 .
b111 J
1!
#250
0!
0&
#252
b110 J
b110 .
1!
#254
0!
#256
b101 .
b101 J
1!
#258
0!
#260
b100 J
b100 .
1!
#262
0!
#264
b11 .
b11 J
1!
#266
0!
#268
b10 J
b10 .
1!
#270
0!
#272
b1 .
b1 J
1!
#274
0!
#276
b0 J
b0 .
1!
#278
0!
#280
b10000 .
0-
0$
0#
0%
b10000 J
0I
0B
04
0C
1!
#282
0!
#284
b1111 J
b1111 .
1!
#286
0!
#288
b1110 .
b1110 J
1!
#290
0!
#292
b1101 J
b1101 .
1!
#294
0!
#296
b1100 .
b1100 J
1!
#298
0!
#300
b1011 J
b1011 .
1!
#302
0!
#304
b1010 .
b1010 J
1!
#306
0!
#308
b1001 J
b1001 .
1!
#310
0!
#312
b1000 .
b1000 J
1!
#314
0!
#316
b111 J
b111 .
1!
#318
0!
#320
b110 .
b110 J
1!
#322
0!
#324
b101 J
b101 .
1!
#326
0!
#328
b100 .
b100 J
1!
#330
0!
#332
b11 J
b11 .
1!
#334
0!
#336
b10 .
b10 J
1!
#338
0!
#340
b1 J
b1 .
1!
#342
0!
#344
b0 .
b0 J
1!
#346
0!
#348
bx10 H
0D
bx10 ,
0(
b10000 J
1I
1B
14
1C
b10000 .
1-
1$
1#
1%
1!
#350
0!
#352
b1111 .
b1111 J
1!
#354
0!
#356
b1110 J
b1110 .
1!
#358
0!
#360
b1101 .
b1101 J
1!
#362
0!
#364
b1100 J
b1100 .
1!
#366
0!
#368
b1011 .
b1011 J
1!
#370
0!
#372
b1010 J
b1010 .
1!
#374
0!
#376
b1001 .
b1001 J
1!
#378
0!
#380
b1000 J
b1000 .
1!
#382
0!
#384
b111 .
b111 J
1!
#386
0!
#388
b110 J
b110 .
1!
#390
0!
#392
b101 .
b101 J
1!
#394
0!
#396
b100 J
b100 .
1!
#398
0!
#400
b11 .
b11 J
1!
1&
#402
0!
#404
b10 J
b10 .
1!
#406
0!
#408
b1 .
b1 J
1!
#410
0!
#412
b0 J
b0 .
1!
#414
0!
#416
b10000 .
0-
0$
0#
0%
b10000 J
0I
0B
04
0C
1!
#418
0!
#420
b1111 J
b1111 .
1!
#422
0!
#424
b1110 .
b1110 J
1!
#426
0!
#428
b1101 J
b1101 .
1!
#430
0!
#432
b1100 .
b1100 J
1!
#434
0!
#436
b1011 J
b1011 .
1!
#438
0!
#440
b1010 .
b1010 J
1!
#442
0!
#444
b1001 J
b1001 .
1!
#446
0!
#448
b1000 .
b1000 J
1!
#450
0!
#452
b111 J
b111 .
1!
#454
0!
#456
b110 .
b110 J
1!
#458
0!
#460
b101 J
b101 .
1!
#462
0!
#464
b100 .
b100 J
1!
#466
0!
#468
b11 J
b11 .
1!
#470
0!
#472
b10 .
b10 J
1!
#474
0!
#476
b1 J
b1 .
1!
#478
0!
#480
b0 .
b0 J
1!
#482
0!
#484
bx101 H
bx0x 0
1D
bx101 ,
1(
b10000 J
1I
1B
14
1C
b10000 .
1-
1$
1#
1%
1!
#486
0!
#488
b1111 .
b1111 J
1!
#490
0!
#492
b1110 J
b1110 .
1!
#494
0!
#496
b1101 .
b1101 J
1!
#498
0!
#500
b1100 J
b1100 .
1!
#502
0!
#504
b1011 .
b1011 J
1!
#506
0!
#508
b1010 J
b1010 .
1!
#510
0!
#512
b1001 .
b1001 J
1!
#514
0!
#516
b1000 J
b1000 .
1!
#518
0!
#520
b111 .
b111 J
1!
#522
0!
#524
b110 J
b110 .
1!
#526
0!
#528
b101 .
b101 J
1!
#530
0!
#532
b100 J
b100 .
1!
#534
0!
#536
b11 .
b11 J
1!
#538
0!
#540
b10 J
b10 .
1!
#542
0!
#544
b1 .
b1 J
1!
#546
0!
#548
b0 J
b0 .
1!
#550
0!
0&
#552
b10000 .
0-
0$
0#
0%
b10000 J
0I
0B
04
0C
1!
#554
0!
#556
b1111 J
b1111 .
1!
#558
0!
#560
b1110 .
b1110 J
1!
#562
0!
#564
b1101 J
b1101 .
1!
#566
0!
#568
b1100 .
b1100 J
1!
#570
0!
#572
b1011 J
b1011 .
1!
#574
0!
#576
b1010 .
b1010 J
1!
#578
0!
#580
b1001 J
b1001 .
1!
#582
0!
#584
b1000 .
b1000 J
1!
#586
0!
#588
b111 J
b111 .
1!
#590
0!
#592
b110 .
b110 J
1!
#594
0!
#596
b101 J
b101 .
1!
#598
0!
#600
b100 .
b100 J
1!
#602
0!
#604
b11 J
b11 .
1!
#606
0!
#608
b10 .
b10 J
1!
#610
0!
#612
b1 J
b1 .
1!
#614
0!
#616
b0 .
b0 J
1!
#618
0!
#620
bx1010 H
bx0xx 0
0D
bx0x 1
bx1010 ,
0(
b10000 J
1I
1B
14
1C
b10000 .
1-
1$
1#
1%
1!
#622
0!
#624
b1111 .
b1111 J
1!
#626
0!
#628
b1110 J
b1110 .
1!
#630
0!
#632
b1101 .
b1101 J
1!
#634
0!
#636
b1100 J
b1100 .
1!
#638
0!
#640
b1011 .
b1011 J
1!
#642
0!
#644
b1010 J
b1010 .
1!
#646
0!
#648
b1001 .
b1001 J
1!
#650
0!
#652
b1000 J
b1000 .
1!
#654
0!
#656
b111 .
b111 J
1!
#658
0!
#660
b110 J
b110 .
1!
#662
0!
#664
b101 .
b101 J
1!
#666
0!
#668
b100 J
b100 .
1!
#670
0!
#672
b11 .
b11 J
1!
#674
0!
#676
b10 J
b10 .
1!
#678
0!
#680
b1 .
b1 J
1!
#682
0!
#684
b0 J
b0 .
1!
#686
0!
#688
b10000 .
0-
0$
0#
0%
b10000 J
0I
0B
04
0C
1!
#690
0!
#692
b1111 J
b1111 .
1!
#694
0!
#696
b1110 .
b1110 J
1!
#698
0!
#700
b1101 J
b1101 .
1!
#702
0!
#704
b1100 .
b1100 J
1!
#706
0!
#708
b1011 J
b1011 .
1!
#710
0!
#712
b1010 .
b1010 J
1!
#714
0!
#716
b1001 J
b1001 .
1!
#718
0!
#720
b1000 .
b1000 J
1!
#722
0!
#724
b111 J
b111 .
1!
#726
0!
#728
b110 .
b110 J
1!
#730
0!
#732
b101 J
b101 .
1!
#734
0!
#736
b100 .
b100 J
1!
#738
0!
#740
b11 J
b11 .
1!
#742
0!
#744
b10 .
b10 J
1!
#746
0!
#748
b1 J
b1 .
1!
#750
0!
#752
b0 .
b0 J
1!
#754
0!
#756
bx0xx 1
bx10100 H
bx0x0x 0
bx10100 ,
b10000 J
1I
1B
14
1C
b10000 .
1-
1$
1#
1%
1!
#758
0!
#760
b1111 .
b1111 J
1!
#762
0!
#764
b1110 J
b1110 .
1!
#766
0!
#768
b1101 .
b1101 J
1!
#770
0!
#772
b1100 J
b1100 .
1!
#774
0!
#776
b1011 .
b1011 J
1!
#778
0!
#780
b1010 J
b1010 .
1!
#782
0!
#784
b1001 .
b1001 J
1!
#786
0!
#788
b1000 J
b1000 .
1!
#790
0!
#792
b111 .
b111 J
1!
#794
0!
#796
b110 J
b110 .
1!
#798
0!
#800
b101 .
b101 J
1!
#802
0!
#804
b100 J
b100 .
1!
#806
0!
#808
b11 .
b11 J
1!
#810
0!
#812
b10 J
b10 .
1!
#814
0!
#816
b1 .
b1 J
1!
#818
0!
#820
b0 J
b0 .
1!
#822
0!
#824
b10000 .
0-
0$
0#
0%
b10000 J
0I
0B
04
0C
1!
#826
0!
#828
b1111 J
b1111 .
1!
#830
0!
#832
b1110 .
b1110 J
1!
#834
0!
#836
b1101 J
b1101 .
1!
#838
0!
#840
b1100 .
b1100 J
1!
#842
0!
#844
b1011 J
b1011 .
1!
#846
0!
#848
b1010 .
b1010 J
1!
#850
0!
1&
#852
b1001 J
b1001 .
1!
#854
0!
#856
b1000 .
b1000 J
1!
#858
0!
#860
b111 J
b111 .
1!
#862
0!
#864
b110 .
b110 J
1!
#866
0!
#868
b101 J
b101 .
1!
#870
0!
#872
b100 .
b100 J
1!
#874
0!
#876
b11 J
b11 .
1!
#878
0!
#880
b10 .
b10 J
1!
#882
0!
#884
b1 J
b1 .
1!
#886
0!
#888
b0 .
b0 J
1!
#890
0!
#892
bx101001 H
bx0x00x 0
1D
bx0x0x 1
bx101001 ,
1(
b10000 J
1I
1B
14
1C
b10000 .
1-
1$
1#
1%
1!
#894
0!
#896
b1111 .
b1111 J
1!
#898
0!
#900
b1110 J
b1110 .
1!
#902
0!
#904
b1101 .
b1101 J
1!
#906
0!
#908
b1100 J
b1100 .
1!
#910
0!
#912
b1011 .
b1011 J
1!
#914
0!
#916
b1010 J
b1010 .
1!
#918
0!
#920
b1001 .
b1001 J
1!
#922
0!
#924
b1000 J
b1000 .
1!
#926
0!
#928
b111 .
b111 J
1!
#930
0!
#932
b110 J
b110 .
1!
#934
0!
#936
b101 .
b101 J
1!
#938
0!
#940
b100 J
b100 .
1!
#942
0!
#944
b11 .
b11 J
1!
#946
0!
#948
b10 J
b10 .
1!
#950
0!
#952
b1 .
b1 J
1!
#954
0!
#956
b0 J
b0 .
1!
#958
0!
#960
b10000 .
0-
0$
0#
0%
b10000 J
0I
0B
04
0C
1!
#962
0!
#964
b1111 J
b1111 .
1!
#966
0!
#968
b1110 .
b1110 J
1!
#970
0!
#972
b1101 J
b1101 .
1!
#974
0!
#976
b1100 .
b1100 J
1!
#978
0!
#980
b1011 J
b1011 .
1!
#982
0!
#984
b1010 .
b1010 J
1!
#986
0!
#988
b1001 J
b1001 .
1!
#990
0!
#992
b1000 .
b1000 J
1!
#994
0!
#996
b111 J
b111 .
1!
#998
0!
#1000
b110 .
b110 J
1!
0&
#1002
0!
#1004
b101 J
b101 .
1!
#1006
0!
#1008
b100 .
b100 J
1!
#1010
0!
#1012
b11 J
b11 .
1!
#1014
0!
#1016
b10 .
b10 J
1!
#1018
0!
#1020
b1 J
b1 .
1!
#1022
0!
#1024
b0 .
b0 J
1!
#1026
0!
#1028
bx0x00x 1
bx1010010 H
bx0x00xx 0
0D
bx1010010 ,
0(
b10000 J
1I
1B
14
1C
b10000 .
1-
1$
1#
1%
1!
#1030
0!
#1032
b1111 .
b1111 J
1!
#1034
0!
#1036
b1110 J
b1110 .
1!
#1038
0!
#1040
b1101 .
b1101 J
1!
#1042
0!
#1044
b1100 J
b1100 .
1!
#1046
0!
#1048
b1011 .
b1011 J
1!
#1050
0!
#1052
b1010 J
b1010 .
1!
#1054
0!
#1056
b1001 .
b1001 J
1!
#1058
0!
#1060
b1000 J
b1000 .
1!
#1062
0!
#1064
b111 .
b111 J
1!
#1066
0!
#1068
b110 J
b110 .
1!
#1070
0!
#1072
b101 .
b101 J
1!
#1074
0!
#1076
b100 J
b100 .
1!
#1078
0!
#1080
b11 .
b11 J
1!
#1082
0!
#1084
b10 J
b10 .
1!
#1086
0!
#1088
b1 .
b1 J
1!
#1090
0!
#1092
b0 J
b0 .
1!
#1094
0!
#1096
b10000 .
0-
0$
0#
0%
b10000 J
0I
0B
04
0C
1!
#1098
0!
#1100
b1111 J
b1111 .
1!
#1102
0!
#1104
b1110 .
b1110 J
1!
#1106
0!
#1108
b1101 J
b1101 .
1!
#1110
0!
#1112
b1100 .
b1100 J
1!
#1114
0!
#1116
b1011 J
b1011 .
1!
#1118
0!
#1120
b1010 .
b1010 J
1!
#1122
0!
#1124
b1001 J
b1001 .
1!
#1126
0!
#1128
b1000 .
b1000 J
1!
#1130
0!
#1132
b111 J
b111 .
1!
#1134
0!
#1136
b110 .
b110 J
1!
#1138
0!
#1140
b101 J
b101 .
1!
#1142
0!
#1144
b100 .
b100 J
1!
#1146
0!
#1148
b11 J
b11 .
1!
#1150
0!
1&
#1152
b10 .
b10 J
1!
#1154
0!
#1156
b1 J
b1 .
1!
#1158
0!
#1160
b0 .
b0 J
1!
#1162
0!
#1164
bx10100101 H
bx0x00x0x 0
1D
bx0x00xx 1
bx10100101 ,
1(
b10000 J
1I
1B
14
1C
b10000 .
1-
1$
1#
1%
1!
#1166
0!
#1168
b1111 .
b1111 J
1!
#1170
0!
#1172
b1110 J
b1110 .
1!
#1174
0!
#1176
b1101 .
b1101 J
1!
#1178
0!
#1180
b1100 J
b1100 .
1!
#1182
0!
#1184
b1011 .
b1011 J
1!
#1186
0!
#1188
b1010 J
b1010 .
1!
#1190
0!
#1192
b1001 .
b1001 J
1!
#1194
0!
#1196
b1000 J
b1000 .
1!
#1198
0!
#1200
b111 .
b111 J
1!
#1202
0!
#1204
b110 J
b110 .
1!
#1206
0!
#1208
b101 .
b101 J
1!
#1210
0!
#1212
b100 J
b100 .
1!
#1214
0!
#1216
b11 .
b11 J
1!
#1218
0!
#1220
b10 J
b10 .
1!
#1222
0!
#1224
b1 .
b1 J
1!
#1226
0!
#1228
b0 J
b0 .
1!
#1230
0!
#1232
b10000 .
0-
0$
0#
0%
b10000 J
0I
0B
04
0C
1!
#1234
0!
#1236
b1111 J
b1111 .
1!
#1238
0!
#1240
b1110 .
b1110 J
1!
#1242
0!
#1244
b1101 J
b1101 .
1!
#1246
0!
#1248
b1100 .
b1100 J
1!
#1250
0!
#1252
b1011 J
b1011 .
1!
#1254
0!
#1256
b1010 .
b1010 J
1!
#1258
0!
#1260
b1001 J
b1001 .
1!
#1262
0!
#1264
b1000 .
b1000 J
1!
#1266
0!
#1268
b111 J
b111 .
1!
#1270
0!
#1272
b110 .
b110 J
1!
#1274
0!
#1276
b101 J
b101 .
1!
#1278
0!
#1280
b100 .
b100 J
1!
#1282
0!
#1284
b11 J
b11 .
1!
#1286
0!
#1288
b10 .
b10 J
1!
#1290
0!
#1292
b1 J
b1 .
1!
#1294
0!
#1296
b0 .
b0 J
1!
#1298
0!
#1300
bx0x00x0x 1
bx101001011 H
bx0x00x0xx 0
bx101001011 ,
b10000 J
1I
1B
14
1C
b10000 .
1-
1$
1#
1%
1!
#1302
0!
#1304
b1111 .
b1111 J
1!
#1306
0!
#1308
b1110 J
b1110 .
1!
#1310
0!
#1312
b1101 .
b1101 J
1!
#1314
0!
#1316
b1100 J
b1100 .
1!
#1318
0!
#1320
b1011 .
b1011 J
1!
#1322
0!
#1324
b1010 J
b1010 .
1!
#1326
0!
#1328
b1001 .
b1001 J
1!
#1330
0!
#1332
b1000 J
b1000 .
1!
#1334
0!
#1336
b111 .
b111 J
1!
#1338
0!
#1340
b110 J
b110 .
1!
#1342
0!
#1344
b101 .
b101 J
1!
#1346
0!
#1348
b100 J
b100 .
1!
#1350
0!
#1352
b11 .
b11 J
1!
#1354
0!
#1356
b10 J
b10 .
1!
#1358
0!
#1360
b1 .
b1 J
1!
#1362
0!
#1364
b0 J
b0 .
1!
#1366
0!
#1368
b10000 .
0-
0$
0#
0%
b10000 J
0I
0B
04
0C
1!
#1370
0!
#1372
b1111 J
b1111 .
1!
#1374
0!
#1376
b1110 .
b1110 J
1!
#1378
0!
#1380
b1101 J
b1101 .
1!
#1382
0!
#1384
b1100 .
b1100 J
1!
#1386
0!
#1388
b1011 J
b1011 .
1!
#1390
0!
#1392
b1010 .
b1010 J
1!
#1394
0!
#1396
b1001 J
b1001 .
1!
#1398
0!
#1400
b1000 .
b1000 J
1!
0&
#1402
0!
#1404
b111 J
b111 .
1!
#1406
0!
#1408
b110 .
b110 J
1!
#1410
0!
#1412
b101 J
b101 .
1!
#1414
0!
#1416
b100 .
b100 J
1!
#1418
0!
#1420
b11 J
b11 .
1!
#1422
0!
#1424
b10 .
b10 J
1!
#1426
0!
#1428
b1 J
b1 .
1!
#1430
0!
#1432
b0 .
b0 J
1!
#1434
0!
#1436
bx1010010110 H
bx0x00x0xxx 0
0D
bx0x00x0xx 1
bx1010010110 ,
0(
b10000 J
1I
1B
14
1C
b10000 .
1-
1$
1#
1%
1!
#1438
0!
#1440
b1111 .
b1111 J
1!
#1442
0!
#1444
b1110 J
b1110 .
1!
#1446
0!
#1448
b1101 .
b1101 J
1!
#1450
0!
#1452
b1100 J
b1100 .
1!
#1454
0!
#1456
b1011 .
b1011 J
1!
#1458
0!
#1460
b1010 J
b1010 .
1!
#1462
0!
#1464
b1001 .
b1001 J
1!
#1466
0!
#1468
b1000 J
b1000 .
1!
#1470
0!
#1472
b111 .
b111 J
1!
#1474
0!
#1476
b110 J
b110 .
1!
#1478
0!
#1480
b101 .
b101 J
1!
#1482
0!
#1484
b100 J
b100 .
1!
#1486
0!
#1488
b11 .
b11 J
1!
#1490
0!
#1492
b10 J
b10 .
1!
#1494
0!
#1496
b1 .
b1 J
1!
#1498
0!
#1500
b0 J
b0 .
1!
#1502
0!
#1504
b10000 .
0-
0$
0#
0%
b10000 J
0I
0B
04
0C
1!
#1506
0!
#1508
b1111 J
b1111 .
1!
#1510
0!
#1512
b1110 .
b1110 J
1!
#1514
0!
#1516
b1101 J
b1101 .
1!
#1518
0!
#1520
b1100 .
b1100 J
1!
#1522
0!
#1524
b1011 J
b1011 .
1!
#1526
0!
#1528
b1010 .
b1010 J
1!
#1530
0!
#1532
b1001 J
b1001 .
1!
#1534
0!
#1536
b1000 .
b1000 J
1!
#1538
0!
#1540
b111 J
b111 .
1!
#1542
0!
#1544
b110 .
b110 J
1!
#1546
0!
#1548
b101 J
b101 .
1!
#1550
0!
1&
#1552
b100 .
b100 J
1!
#1554
0!
#1556
b11 J
b11 .
1!
#1558
0!
#1560
b10 .
b10 J
1!
#1562
0!
#1564
b1 J
b1 .
1!
#1566
0!
#1568
b0 .
b0 J
1!
#1570
0!
#1572
bx0x00x0xxx 1
bx10100101101 H
bx0x00x0xx0x 0
1D
bx10100101101 ,
1(
b10000 J
1I
1B
14
1C
b10000 .
1-
1$
1#
1%
1!
#1574
0!
#1576
b1111 .
b1111 J
1!
#1578
0!
#1580
b1110 J
b1110 .
1!
#1582
0!
#1584
b1101 .
b1101 J
1!
#1586
0!
#1588
b1100 J
b1100 .
1!
#1590
0!
#1592
b1011 .
b1011 J
1!
#1594
0!
#1596
b1010 J
b1010 .
1!
#1598
0!
#1600
b1001 .
b1001 J
1!
#1602
0!
#1604
b1000 J
b1000 .
1!
#1606
0!
#1608
b111 .
b111 J
1!
#1610
0!
#1612
b110 J
b110 .
1!
#1614
0!
#1616
b101 .
b101 J
1!
#1618
0!
#1620
b100 J
b100 .
1!
#1622
0!
#1624
b11 .
b11 J
1!
#1626
0!
#1628
b10 J
b10 .
1!
#1630
0!
#1632
b1 .
b1 J
1!
#1634
0!
#1636
b0 J
b0 .
1!
#1638
0!
#1640
b10000 .
0-
0$
0#
0%
b10000 J
0I
0B
04
0C
1!
#1642
0!
#1644
b1111 J
b1111 .
1!
#1646
0!
#1648
b1110 .
b1110 J
1!
#1650
0!
#1652
b1101 J
b1101 .
1!
#1654
0!
#1656
b1100 .
b1100 J
1!
#1658
0!
#1660
b1011 J
b1011 .
1!
#1662
0!
#1664
b1010 .
b1010 J
1!
#1666
0!
#1668
b1001 J
b1001 .
1!
#1670
0!
#1672
b1000 .
b1000 J
1!
#1674
0!
#1676
b111 J
b111 .
1!
#1678
0!
#1680
b110 .
b110 J
1!
#1682
0!
#1684
b101 J
b101 .
1!
#1686
0!
#1688
b100 .
b100 J
1!
#1690
0!
#1692
b11 J
b11 .
1!
#1694
0!
#1696
b10 .
b10 J
1!
#1698
0!
#1700
b1 J
b1 .
1!
0&
#1702
0!
#1704
b0 .
b0 J
1!
#1706
0!
#1708
bx101001011010 H
bx0x00x0xx0xx 0
0D
bx0x00x0xx0x 1
bx101001011010 ,
0(
b10000 J
1I
1B
14
1C
b10000 .
1-
1$
1#
1%
1!
#1710
0!
#1712
b1111 .
b1111 J
1!
#1714
0!
#1716
b1110 J
b1110 .
1!
#1718
0!
#1720
b1101 .
b1101 J
1!
#1722
0!
#1724
b1100 J
b1100 .
1!
#1726
0!
#1728
b1011 .
b1011 J
1!
#1730
0!
#1732
b1010 J
b1010 .
1!
#1734
0!
#1736
b1001 .
b1001 J
1!
#1738
0!
#1740
b1000 J
b1000 .
1!
#1742
0!
#1744
b111 .
b111 J
1!
#1746
0!
#1748
b110 J
b110 .
1!
#1750
0!
#1752
b101 .
b101 J
1!
#1754
0!
#1756
b100 J
b100 .
1!
#1758
0!
#1760
b11 .
b11 J
1!
#1762
0!
#1764
b10 J
b10 .
1!
#1766
0!
#1768
b1 .
b1 J
1!
#1770
0!
#1772
b0 J
b0 .
1!
#1774
0!
#1776
b10000 .
0-
0$
0#
0%
b10000 J
0I
0B
04
0C
1!
#1778
0!
#1780
b1111 J
b1111 .
1!
#1782
0!
#1784
b1110 .
b1110 J
1!
#1786
0!
#1788
b1101 J
b1101 .
1!
#1790
0!
#1792
b1100 .
b1100 J
1!
#1794
0!
#1796
b1011 J
b1011 .
1!
#1798
0!
#1800
b1010 .
b1010 J
1!
#1802
0!
#1804
b1001 J
b1001 .
1!
#1806
0!
#1808
b1000 .
b1000 J
1!
#1810
0!
#1812
b111 J
b111 .
1!
#1814
0!
#1816
b110 .
b110 J
1!
#1818
0!
#1820
b101 J
b101 .
1!
#1822
0!
#1824
b100 .
b100 J
1!
#1826
0!
#1828
b11 J
b11 .
1!
#1830
0!
#1832
b10 .
b10 J
1!
#1834
0!
#1836
b1 J
b1 .
1!
#1838
0!
#1840
b0 .
b0 J
1!
#1842
0!
#1844
bx0x00x0xx0xx 1
bx1010010110100 H
bx0x00x0xx0x0x 0
bx1010010110100 ,
b10000 J
1I
1B
14
1C
b10000 .
1-
1$
1#
1%
1!
#1846
0!
#1848
b1111 .
b1111 J
1!
#1850
0!
#1852
b1110 J
b1110 .
1!
#1854
0!
#1856
b1101 .
b1101 J
1!
#1858
0!
#1860
b1100 J
b1100 .
1!
#1862
0!
#1864
b1011 .
b1011 J
1!
#1866
0!
#1868
b1010 J
b1010 .
1!
#1870
0!
#1872
b1001 .
b1001 J
1!
#1874
0!
#1876
b1000 J
b1000 .
1!
#1878
0!
#1880
b111 .
b111 J
1!
#1882
0!
#1884
b110 J
b110 .
1!
#1886
0!
#1888
b101 .
b101 J
1!
#1890
0!
#1892
b100 J
b100 .
1!
#1894
0!
#1896
b11 .
b11 J
1!
#1898
0!
#1900
b10 J
b10 .
1!
#1902
0!
#1904
b1 .
b1 J
1!
#1906
0!
#1908
b0 J
b0 .
1!
#1910
0!
#1912
b10000 .
0-
0$
0#
0%
b10000 J
0I
0B
04
0C
1!
#1914
0!
#1916
b1111 J
b1111 .
1!
#1918
0!
#1920
b1110 .
b1110 J
1!
#1922
0!
#1924
b1101 J
b1101 .
1!
#1926
0!
#1928
b1100 .
b1100 J
1!
#1930
0!
#1932
b1011 J
b1011 .
1!
#1934
0!
#1936
b1010 .
b1010 J
1!
#1938
0!
#1940
b1001 J
b1001 .
1!
#1942
0!
#1944
b1000 .
b1000 J
1!
#1946
0!
#1948
b111 J
b111 .
1!
#1950
0!
#1952
b110 .
b110 J
1!
#1954
0!
#1956
b101 J
b101 .
1!
#1958
0!
#1960
b100 .
b100 J
1!
#1962
0!
#1964
b11 J
b11 .
1!
#1966
0!
#1968
b10 .
b10 J
1!
#1970
0!
#1972
b1 J
b1 .
1!
#1974
0!
#1976
b0 .
b0 J
1!
#1978
0!
#1980
bx10100101101000 H
bx0x00x0xx0x00x 0
bx0x00x0xx0x0x 1
bx10100101101000 ,
b10000 J
1I
1B
14
1C
b10000 .
1-
1$
1#
1%
1!
#1982
0!
#1984
b1111 .
b1111 J
1!
#1986
0!
#1988
b1110 J
b1110 .
1!
#1990
0!
#1992
b1101 .
b1101 J
1!
#1994
0!
#1996
b1100 J
b1100 .
1!
#1998
0!
#2000
b1011 .
b1011 J
1!
1&
#2002
0!
#2004
b1010 J
b1010 .
1!
#2006
0!
#2008
b1001 .
b1001 J
1!
#2010
0!
#2012
b1000 J
b1000 .
1!
#2014
0!
#2016
b111 .
b111 J
1!
#2018
0!
#2020
b110 J
b110 .
1!
#2022
0!
#2024
b101 .
b101 J
1!
#2026
0!
#2028
b100 J
b100 .
1!
#2030
0!
#2032
b11 .
b11 J
1!
#2034
0!
#2036
b10 J
b10 .
1!
#2038
0!
#2040
b1 .
b1 J
1!
#2042
0!
#2044
b0 J
b0 .
1!
#2046
0!
#2048
b10000 .
0-
0$
0#
0%
b10000 J
0I
0B
04
0C
1!
#2050
0!
#2052
b1111 J
b1111 .
1!
#2054
0!
#2056
b1110 .
b1110 J
1!
#2058
0!
#2060
b1101 J
b1101 .
1!
#2062
0!
#2064
b1100 .
b1100 J
1!
