PinBallVHDL_Lab1-master/Quartus_Project/simulation/qsim/PinBall.msim.vcd
$comment
	File created using the following command:
		vcd file PinBall.msim.vcd -direction
$end
$date
	Mon May 28 21:25:53 2018
$end
$version
	ModelSim Version 10.5b
$end
$timescale
	1ps
$end

$scope module score_up_counter_vhd_vec_tst $end
$var wire 1 ! clk $end
$var wire 1 " enable $end
$var wire 1 # resetN $end
$var wire 1 $ score_in [3] $end
$var wire 1 % score_in [2] $end
$var wire 1 & score_in [1] $end
$var wire 1 ' score_in [0] $end
$var wire 1 ( score_out [16] $end
$var wire 1 ) score_out [15] $end
$var wire 1 * score_out [14] $end
$var wire 1 + score_out [13] $end
$var wire 1 , score_out [12] $end
$var wire 1 - score_out [11] $end
$var wire 1 . score_out [10] $end
$var wire 1 / score_out [9] $end
$var wire 1 0 score_out [8] $end
$var wire 1 1 score_out [7] $end
$var wire 1 2 score_out [6] $end
$var wire 1 3 score_out [5] $end
$var wire 1 4 score_out [4] $end
$var wire 1 5 score_out [3] $end
$var wire 1 6 score_out [2] $end
$var wire 1 7 score_out [1] $end
$var wire 1 8 score_out [0] $end
$var wire 1 9 scored $end

$scope module i1 $end
$var wire 1 : gnd $end
$var wire 1 ; vcc $end
$var wire 1 < unknown $end
$var wire 1 = devoe $end
$var wire 1 > devclrn $end
$var wire 1 ? devpor $end
$var wire 1 @ ww_devoe $end
$var wire 1 A ww_devclrn $end
$var wire 1 B ww_devpor $end
$var wire 1 C ww_clk $end
$var wire 1 D ww_resetN $end
$var wire 1 E ww_enable $end
$var wire 1 F ww_score_in [3] $end
$var wire 1 G ww_score_in [2] $end
$var wire 1 H ww_score_in [1] $end
$var wire 1 I ww_score_in [0] $end
$var wire 1 J ww_scored $end
$var wire 1 K ww_score_out [16] $end
$var wire 1 L ww_score_out [15] $end
$var wire 1 M ww_score_out [14] $end
$var wire 1 N ww_score_out [13] $end
$var wire 1 O ww_score_out [12] $end
$var wire 1 P ww_score_out [11] $end
$var wire 1 Q ww_score_out [10] $end
$var wire 1 R ww_score_out [9] $end
$var wire 1 S ww_score_out [8] $end
$var wire 1 T ww_score_out [7] $end
$var wire 1 U ww_score_out [6] $end
$var wire 1 V ww_score_out [5] $end
$var wire 1 W ww_score_out [4] $end
$var wire 1 X ww_score_out [3] $end
$var wire 1 Y ww_score_out [2] $end
$var wire 1 Z ww_score_out [1] $end
$var wire 1 [ ww_score_out [0] $end
$var wire 1 \ \~QUARTUS_CREATED_GND~I_combout\ $end
$var wire 1 ] \clk~input_o\ $end
$var wire 1 ^ \clk~inputCLKENA0_outclk\ $end
$var wire 1 _ \score_in[0]~input_o\ $end
$var wire 1 ` \Add0~1_sumout\ $end
$var wire 1 a \resetN~input_o\ $end
$var wire 1 b \enable~input_o\ $end
$var wire 1 c \scored~input_o\ $end
$var wire 1 d \score_keeper[0]~0_combout\ $end
$var wire 1 e \score_in[1]~input_o\ $end
$var wire 1 f \Add0~2\ $end
$var wire 1 g \Add0~5_sumout\ $end
$var wire 1 h \score_in[2]~input_o\ $end
$var wire 1 i \Add0~6\ $end
$var wire 1 j \Add0~9_sumout\ $end
$var wire 1 k \score_in[3]~input_o\ $end
$var wire 1 l \Add0~10\ $end
$var wire 1 m \Add0~13_sumout\ $end
$var wire 1 n \Add0~14\ $end
$var wire 1 o \Add0~17_sumout\ $end
$var wire 1 p \Add0~18\ $end
$var wire 1 q \Add0~21_sumout\ $end
$var wire 1 r \Add0~22\ $end
$var wire 1 s \Add0~25_sumout\ $end
$var wire 1 t \Add0~26\ $end
$var wire 1 u \Add0~29_sumout\ $end
$var wire 1 v \Add0~30\ $end
$var wire 1 w \Add0~33_sumout\ $end
$var wire 1 x \Add0~34\ $end
$var wire 1 y \Add0~37_sumout\ $end
$var wire 1 z \Add0~38\ $end
$var wire 1 { \Add0~41_sumout\ $end
$var wire 1 | \Add0~42\ $end
$var wire 1 } \Add0~45_sumout\ $end
$var wire 1 ~ \Add0~46\ $end
$var wire 1 !! \Add0~49_sumout\ $end
$var wire 1 "! \Add0~50\ $end
$var wire 1 #! \Add0~53_sumout\ $end
$var wire 1 $! \Add0~54\ $end
$var wire 1 %! \Add0~57_sumout\ $end
$var wire 1 &! \Add0~58\ $end
$var wire 1 '! \Add0~61_sumout\ $end
$var wire 1 (! \Add0~62\ $end
$var wire 1 )! \Add0~65_sumout\ $end
$var wire 1 *! score_keeper [16] $end
$var wire 1 +! score_keeper [15] $end
$var wire 1 ,! score_keeper [14] $end
$var wire 1 -! score_keeper [13] $end
$var wire 1 .! score_keeper [12] $end
$var wire 1 /! score_keeper [11] $end
$var wire 1 0! score_keeper [10] $end
$var wire 1 1! score_keeper [9] $end
$var wire 1 2! score_keeper [8] $end
$var wire 1 3! score_keeper [7] $end
$var wire 1 4! score_keeper [6] $end
$var wire 1 5! score_keeper [5] $end
$var wire 1 6! score_keeper [4] $end
$var wire 1 7! score_keeper [3] $end
$var wire 1 8! score_keeper [2] $end
$var wire 1 9! score_keeper [1] $end
$var wire 1 :! score_keeper [0] $end
$var wire 1 ;! \ALT_INV_score_in[3]~input_o\ $end
$var wire 1 <! \ALT_INV_score_in[2]~input_o\ $end
$var wire 1 =! \ALT_INV_score_in[1]~input_o\ $end
$var wire 1 >! \ALT_INV_score_in[0]~input_o\ $end
$var wire 1 ?! \ALT_INV_scored~input_o\ $end
$var wire 1 @! \ALT_INV_enable~input_o\ $end
$var wire 1 A! ALT_INV_score_keeper [16] $end
$var wire 1 B! ALT_INV_score_keeper [15] $end
$var wire 1 C! ALT_INV_score_keeper [14] $end
$var wire 1 D! ALT_INV_score_keeper [13] $end
$var wire 1 E! ALT_INV_score_keeper [12] $end
$var wire 1 F! ALT_INV_score_keeper [11] $end
$var wire 1 G! ALT_INV_score_keeper [10] $end
$var wire 1 H! ALT_INV_score_keeper [9] $end
$var wire 1 I! ALT_INV_score_keeper [8] $end
$var wire 1 J! ALT_INV_score_keeper [7] $end
$var wire 1 K! ALT_INV_score_keeper [6] $end
$var wire 1 L! ALT_INV_score_keeper [5] $end
$var wire 1 M! ALT_INV_score_keeper [4] $end
$var wire 1 N! ALT_INV_score_keeper [3] $end
$var wire 1 O! ALT_INV_score_keeper [2] $end
$var wire 1 P! ALT_INV_score_keeper [1] $end
$var wire 1 Q! ALT_INV_score_keeper [0] $end
$upscope $end
$upscope $end
$enddefinitions $end
#0
$dumpvars
0!
1"
0#
09
0:
1;
x<
1=
1>
1?
1@
1A
1B
0C
0D
1E
0J
x\
0]
0^
0_
0`
0a
1b
0c
0d
0e
0f
0g
0h
0i
0j
0k
0l
0m
0n
0o
0p
0q
0r
0s
0t
0u
0v
0w
0x
0y
0z
0{
0|
0}
0~
0!!
0"!
0#!
0$!
0%!
0&!
0'!
0(!
0)!
1;!
1<!
1=!
1>!
1?!
0@!
0$
0%
0&
0'
0F
0G
0H
0I
0K
0L
0M
0N
0O
0P
0Q
0R
0S
0T
0U
0V
0W
0X
0Y
0Z
0[
0*!
0+!
0,!
0-!
0.!
0/!
00!
01!
02!
03!
04!
05!
06!
07!
08!
09!
0:!
1A!
1B!
1C!
1D!
1E!
1F!
1G!
1H!
1I!
1J!
1K!
1L!
1M!
1N!
1O!
1P!
1Q!
0(
0)
0*
0+
0,
0-
0.
0/
00
01
02
03
04
05
06
07
08
$end
#10000
1&
1'
1I
1H
1e
1_
0>!
0=!
1g
1`
#15000
1!
1C
1]
1^
#30000
0!
0C
0]
0^
#40000
1#
19
1D
1J
1c
1a
0?!
1d
#45000
1!
1C
1]
1^
1:!
19!
0P!
0Q!
0`
1f
0g
1i
1Z
1[
1j
1g
18
17
#60000
0!
0C
0]
0^
#75000
1!
1C
1]
1^
0:!
18!
0O!
1Q!
1`
0f
0j
1l
1Y
0[
1m
0g
08
16
#80000
09
0J
0c
1?!
0d
#90000
0!
0C
0]
0^
#100000
0&
1%
0H
1G
1h
0e
1=!
0<!
1j
1g
0i
0j
#105000
1!
1C
1]
1^
#120000
0!
19
0C
1J
1c
0]
0^
0?!
1d
#135000
1!
1C
1]
1^
1:!
08!
17!
0N!
1O!
0Q!
0`
1f
1j
0l
0m
1n
1X
0Y
1[
1o
1m
0n
0g
1i
18
06
15
0j
1l
0o
0m
1n
1o
#150000
0!
0C
0]
0^
#160000
09
0J
0c
1?!
0d
#165000
1!
1C
1]
1^
#180000
0!
0C
0]
0^
#195000
1!
1C
1]
1^
#200000
19
1J
1c
0?!
1d
#210000
0!
0C
0]
0^
#225000
1!
1C
1]
1^
0:!
09!
07!
16!
0M!
1N!
1P!
1Q!
1`
0f
1g
0i
1m
0n
0o
1p
1W
0X
0Z
0[
1q
1o
0p
1j
0l
0g
08
07
05
14
0m
0q
#230000
0%
0G
0h
1<!
0j
#240000
0!
09
0C
0J
0c
0]
0^
1?!
0d
#255000
1!
1C
1]
1^
#270000
0!
0C
0]
0^
#280000
19
1J
1c
0?!
1d
#285000
1!
1C
1]
1^
1:!
0Q!
0`
1f
1[
1g
18
#300000
0!
0C
0]
0^
#315000
1!
1C
1]
1^
0:!
19!
0P!
1Q!
1`
0f
0g
1i
1Z
0[
1j
1g
0i
08
17
0j
#320000
09
0J
0c
1?!
0d
#330000
0!
0C
0]
0^
#345000
1!
1C
1]
1^
#360000
0!
19
0C
1J
1c
0]
0^
0?!
1d
#375000
1!
1C
1]
1^
1:!
0Q!
0`
1f
1[
0g
1i
18
1j
#390000
0!
1&
0'
1$
0C
0I
1H
1F
1k
1e
0_
0]
0^
1>!
0=!
0;!
1m
1g
1`
0f
0g
#400000
09
0J
0c
1?!
0d
#405000
1!
1C
1]
1^
#420000
0!
0C
0]
0^
#435000
1!
1C
1]
1^
#440000
19
1J
1c
0?!
1d
#450000
0!
0C
0]
0^
#465000
1!
1C
1]
1^
09!
18!
17!
0N!
0O!
1P!
1g
0i
0j
1l
0m
1n
1X
1Y
0Z
0o
1p
1m
1j
0l
07
16
15
0m
1q
#480000
0!
09
0C
0J
0c
0]
0^
1?!
0d
#495000
1!
1C
1]
1^
#510000
0!
0C
0]
0^
#520000
19
1J
1c
0?!
1d
#525000
1!
1C
1]
1^
19!
07!
06!
15!
0L!
1M!
1N!
0P!
0g
1i
1m
0n
1o
0p
0q
1r
1V
0W
0X
1Z
1s
1q
0r
0o
0j
1l
17
05
04
13
0m
1n
0s
1o
#540000
0!
0C
0]
0^
#555000
1!
1C
1]
1^
09!
08!
16!
0M!
1O!
1P!
1g
0i
1j
0l
0o
1p
1W
0Y
0Z
0q
1r
1m
0n
0j
07
06
14
1o
0p
1s
1q
0r
0s
#560000
09
0J
0c
1?!
0d
#570000
0!
0C
0]
0^
#585000
1!
1C
1]
1^
#600000
0!
19
0C
1J
1c
0]
0^
0?!
1d
#610000
0&
0$
0H
0F
0k
0e
1=!
1;!
0m
0g
#615000
1!
1C
1]
1^
#630000
0!
0C
0]
0^
#640000
09
0J
0c
1?!
0d
#645000
1!
1C
1]
1^
#660000
0!
0C
0]
0^
#675000
1!
1C
1]
1^
#680000
19
0#
1J
0D
0a
1c
0?!
0:!
06!
05!
1d
1L!
1M!
1Q!
0`
0o
0q
0V
0W
0[
08
04
03
#690000
0!
0C
0]
0^
#705000
1!
1C
1]
1^
#720000
0!
09
0C
0J
0c
0]
0^
1?!
0d
#730000
1#
1D
1a
#735000
1!
1C
1]
1^
#750000
0!
0C
0]
0^
#760000
19
1J
1c
0?!
1d
#765000
1!
1C
1]
1^
#780000
0!
0C
0]
0^
#795000
1!
1C
1]
1^
#800000
09
0J
0c
1?!
0d
#810000
0!
0C
0]
0^
#825000
1!
1C
1]
1^
#840000
0!
19
0C
1J
1c
0]
0^
0?!
1d
#855000
1!
1C
1]
1^
#870000
0!
0C
0]
0^
#880000
09
0J
0c
1?!
0d
#885000
1!
1C
1]
1^
#900000
0!
1&
0C
1H
1e
0]
0^
0=!
1g
#915000
1!
1C
1]
1^
#920000
19
1J
1c
0?!
1d
#930000
0!
0C
0]
0^
#945000
1!
1C
1]
1^
19!
0P!
0g
1i
1Z
1j
17
#960000
0!
09
0C
0J
0c
0]
0^
1?!
0d
#975000
1!
1C
1]
1^
#990000
0!
0&
0C
0H
0e
0]
0^
1=!
1g
0i
0j
